{
  "project_info": {
    "project_number": "65752698226",
    "firebase_url": "https://elaird.firebaseio.com",
    "project_id": "elaird",
    "storage_bucket": "elaird.appspot.com"
  },
  "client": [
    {
      "client_info": {
        "mobilesdk_app_id": "1:65752698226:android:587570f2bb9cec935da1eb",
        "android_client_info": {
          "package_name": "io.leasebuddy.m"
        }
      },
      "oauth_client": [
        {
          "client_id": "65752698226-i015qafkjh2ikbvt3lantg7s6faj9cf4.apps.googleusercontent.com",
          "client_type": 3
        }
      ],
      "api_key": [
        {
          "current_key": "AIzaSyDhdsxOtLYndx9uHWXrmgNvMQEN4BFwGRU"
        }
      ],
      "services": {
        "appinvite_service": {
          "other_platform_oauth_client": [
            {
              "client_id": "65752698226-i015qafkjh2ikbvt3lantg7s6faj9cf4.apps.googleusercontent.com",
              "client_type": 3
            }
          ]
        }
      }
    }
  ],
  "configuration_version": "1"
}